<?xml version="1.0" encoding="utf-8"?><!-- Uploaded to: SVG Repo, www.svgrepo.com, Generator: SVG Repo Mixer Tools -->
<svg width="800px" height="800px" viewBox="0 0 24 24" fill="none" xmlns="http://www.w3.org/2000/svg">
<circle cx="12" cy="17" r="1" fill="#2c3e50"/>
<path d="M12 10L12 14" stroke="#2c3e50" stroke-width="2" stroke-linecap="round" stroke-linejoin="round"/>
<path d="M3.44722 18.1056L10.2111 4.57771C10.9482 3.10361 13.0518 3.10362 13.7889 4.57771L20.5528 18.1056C21.2177 19.4354 20.2507 21 18.7639 21H5.23607C3.7493 21 2.78231 19.4354 3.44722 18.1056Z" stroke="#2c3e50" stroke-width="2" stroke-linecap="round" stroke-linejoin="round"/>
</svg>